<?xml version="1.0" encoding="UTF-8" standalone="no"?>
<svg width="32px" height="32px" viewBox="0 0 32 32" version="1.1" xmlns="http://www.w3.org/2000/svg" xmlns:xlink="http://www.w3.org/1999/xlink">
    <!-- Generator: Sketch 40.3 (33839) - http://www.bohemiancoding.com/sketch -->
    <title>Search Icon</title>
    <desc>Created with Sketch.</desc>
    <defs></defs>
    <g id="Symbols" stroke="none" stroke-width="1" fill="none" fill-rule="evenodd">
        <g id="Global-Search" transform="translate(-1538.000000, -38.000000)" fill="#F3720A">
            <path d="M1542.91918,57.0906846 C1539.02575,53.1886359 1539.02575,46.8382429 1542.91918,42.9356941 C1544.80594,41.0459283 1547.3134,40.0047819 1549.98106,40.0047819 C1552.64872,40.0047819 1555.15618,41.0459283 1557.04294,42.9356941 C1560.93687,46.8382429 1560.93687,53.1886359 1557.04294,57.0906846 C1555.15618,58.9809504 1552.64872,60.0225969 1549.98106,60.0225969 C1547.3134,60.0225969 1544.80594,58.9809504 1542.91918,57.0906846 M1569.70716,68.2887594 L1559.16498,57.7232736 C1563.1108,53.0081105 1562.87955,45.950118 1558.45713,41.5184948 C1556.19301,39.2496757 1553.18276,38 1549.98106,38 C1546.77936,38 1543.76911,39.2496757 1541.50499,41.5184948 C1536.83167,46.2026535 1536.83167,53.8242253 1541.50499,58.508384 C1543.76911,60.777203 1546.77936,62.0273789 1549.98106,62.0273789 C1552.86536,62.0273789 1555.59197,61.0102358 1557.75986,59.1504743 L1568.29247,69.7064587 C1568.48795,69.9019862 1568.74388,70 1568.99982,70 C1569.25575,70 1569.51168,69.9019862 1569.70716,69.7064587 C1570.09761,69.3149037 1570.09761,68.6803144 1569.70716,68.2887594" id="Search-Icon"></path>
        </g>
    </g>
</svg>