<?xml version="1.0" encoding="UTF-8" standalone="no"?>
<svg width="13px" height="8px" viewBox="0 0 13 8" version="1.1" xmlns="http://www.w3.org/2000/svg" xmlns:xlink="http://www.w3.org/1999/xlink">
    <!-- Generator: Sketch 40.2 (33826) - http://www.bohemiancoding.com/sketch -->
    <title>&gt;</title>
    <desc>Created with Sketch.</desc>
    <defs></defs>
    <g id="Symbols" stroke="none" stroke-width="1" fill="none" fill-rule="evenodd">
        <g id="Left-Nav-White-with-Dark-Blue-OUR-FIRM---OVERVIEW" transform="translate(-199.000000, -336.000000)" fill="#1F2228">
            <path d="M208.054,340.988 C207.994,341.108001 207.964,341.192 207.964,341.24 L207.874,341.402 C207.874,341.414 207.868,341.42 207.856,341.42 L202.672,346.676 C202.455999,346.892001 202.192002,347 201.88,347 C201.567998,347 201.292001,346.892001 201.052,346.676 C200.823999,346.447999 200.71,346.181002 200.71,345.875 C200.71,345.568998 200.823999,345.296001 201.052,345.056 L205.318,340.754 L201.052,336.452 C200.823999,336.223999 200.71,335.954002 200.71,335.642 C200.71,335.329998 200.820999,335.063001 201.043,334.841 C201.265001,334.618999 201.534998,334.508 201.853,334.508 C202.171002,334.508 202.443999,334.615999 202.672,334.832 L207.856,340.088 C207.88,340.136 207.901,340.175 207.919,340.205 C207.937,340.235 207.949,340.259 207.955,340.277 C207.961,340.295 207.967,340.304 207.973,340.304 C207.979,340.304 207.982,340.31 207.982,340.322 L208.054,340.538 L208.054,340.664 C208.066,340.712 208.072,340.742 208.072,340.754 L208.054,340.844 L208.054,340.988 Z" id="&gt;" transform="translate(205.435000, 340.754000) rotate(-270.000000) translate(-205.435000, -340.754000) "></path>
        </g>
    </g>
</svg>