<?xml version="1.0" encoding="UTF-8"?>
<svg width="33px" height="33px" viewBox="0 0 33 33" version="1.1" xmlns="http://www.w3.org/2000/svg" xmlns:xlink="http://www.w3.org/1999/xlink">
    <!-- Generator: Sketch 41 (35326) - http://www.bohemiancoding.com/sketch -->
    <title>Page 1</title>
    <desc>Created with Sketch.</desc>
    <defs></defs>
    <g id="Symbols" stroke="none" stroke-width="1" fill="none" fill-rule="evenodd">
        <g id="News-Or-Events-Card-No-Image-White" transform="translate(-292.000000, -10.000000)" fill="#1F2228">
            <path d="M315,31 L317,31 L317,32 L315,32 L315,34 L314,34 L314,32 L312,32 L312,31 L314,31 L314,29 L315,29 L315,31 Z M308.5,42 C299.953,42 293,35.047 293,26.5 C293,17.953 299.953,11 308.5,11 C317.047,11 324,17.953 324,26.5 C324,35.047 317.047,42 308.5,42 L308.5,42 Z M308.5,10 C299.387,10 292,17.387 292,26.5 C292,35.613 299.387,43 308.5,43 C317.613,43 325,35.613 325,26.5 C325,17.387 317.613,10 308.5,10 L308.5,10 Z M308.24,24.09 C308.24,23.95 308.36,23.83 308.5,23.83 C308.64,23.83 308.76,23.95 308.76,24.09 C308.76,24.38 308.24,24.38 308.24,24.09 L308.24,24.09 Z M308.5,22.83 C307.8,22.83 307.24,23.4 307.24,24.09 C307.24,24.79 307.8,25.35 308.5,25.35 C309.2,25.35 309.76,24.79 309.76,24.09 C309.76,23.4 309.2,22.83 308.5,22.83 L308.5,22.83 Z M316.38,24.85 L309.16,26.82 C308.73,26.94 308.27,26.94 307.84,26.82 L300.62,24.85 L300.62,21.43 C300.62,21.28 300.74,21.17 300.89,21.17 L316.11,21.17 C316.26,21.17 316.38,21.28 316.38,21.43 L316.38,24.85 Z M306.72,19.56 C306.72,19.4 306.85,19.26 307.01,19.26 L309.99,19.26 C310.15,19.26 310.28,19.4 310.28,19.56 L310.28,20.17 L306.72,20.17 L306.72,19.56 Z M316.11,20.17 L311.28,20.17 L311.28,19.56 C311.28,18.84 310.71,18.26 309.99,18.26 L307.01,18.26 C306.29,18.26 305.72,18.84 305.72,19.56 L305.72,20.17 L300.89,20.17 C300.19,20.17 299.62,20.73 299.62,21.43 L299.62,25.24 C299.62,25.46 299.78,25.66 299.99,25.72 L300.01,25.72 L300.01,32.01 C300.01,33.17 300.95,34.11 302.11,34.11 L312.18,34.11 C311.86,33.83 311.59,33.49 311.4,33.11 L302.11,33.11 C301.5,33.11 301.01,32.62 301.01,32.01 L301.01,25.99 L307.58,27.79 C307.88,27.87 308.19,27.91 308.5,27.91 C308.81,27.91 309.12,27.87 309.42,27.79 L315.99,25.99 L315.99,28.34 C316.37,28.51 316.71,28.75 316.99,29.05 L316.99,25.72 L317.01,25.72 C317.22,25.66 317.38,25.46 317.38,25.24 L317.38,21.43 C317.38,20.73 316.81,20.17 316.11,20.17 L316.11,20.17 Z" id="Page-1"></path>
        </g>
    </g>
</svg>