<?xml version="1.0" encoding="UTF-8"?>
<svg width="33px" height="33px" viewBox="0 0 33 33" version="1.1" xmlns="http://www.w3.org/2000/svg" xmlns:xlink="http://www.w3.org/1999/xlink">
    <!-- Generator: Sketch 41 (35326) - http://www.bohemiancoding.com/sketch -->
    <title>Page 1</title>
    <desc>Created with Sketch.</desc>
    <defs></defs>
    <g id="Desktop" stroke="none" stroke-width="1" fill="none" fill-rule="evenodd">
        <g id="ATTORNEY-BIO" transform="translate(-1636.000000, -159.000000)" fill="#F3720A">
            <g id="//-HERO" transform="translate(250.000000, 108.000000)">
                <g id="Add-to-Briefcase-CTA" transform="translate(1386.000000, 51.000000)">
                    <path d="M23,21 L25,21 L25,22 L23,22 L23,24 L22,24 L22,22 L20,22 L20,21 L22,21 L22,19 L23,19 L23,21 Z M16.5,32 C7.953,32 1,25.047 1,16.5 C1,7.953 7.953,1 16.5,1 C25.047,1 32,7.953 32,16.5 C32,25.047 25.047,32 16.5,32 L16.5,32 Z M16.5,0 C7.387,0 0,7.387 0,16.5 C0,25.613 7.387,33 16.5,33 C25.613,33 33,25.613 33,16.5 C33,7.387 25.613,0 16.5,0 L16.5,0 Z M16.24,14.09 C16.24,13.95 16.36,13.83 16.5,13.83 C16.64,13.83 16.76,13.95 16.76,14.09 C16.76,14.38 16.24,14.38 16.24,14.09 L16.24,14.09 Z M16.5,12.83 C15.8,12.83 15.24,13.4 15.24,14.09 C15.24,14.79 15.8,15.35 16.5,15.35 C17.2,15.35 17.76,14.79 17.76,14.09 C17.76,13.4 17.2,12.83 16.5,12.83 L16.5,12.83 Z M24.38,14.85 L17.16,16.82 C16.73,16.94 16.27,16.94 15.84,16.82 L8.62,14.85 L8.62,11.43 C8.62,11.28 8.74,11.17 8.89,11.17 L24.11,11.17 C24.26,11.17 24.38,11.28 24.38,11.43 L24.38,14.85 Z M14.72,9.56 C14.72,9.4 14.85,9.26 15.01,9.26 L17.99,9.26 C18.15,9.26 18.28,9.4 18.28,9.56 L18.28,10.17 L14.72,10.17 L14.72,9.56 Z M24.11,10.17 L19.28,10.17 L19.28,9.56 C19.28,8.84 18.71,8.26 17.99,8.26 L15.01,8.26 C14.29,8.26 13.72,8.84 13.72,9.56 L13.72,10.17 L8.89,10.17 C8.19,10.17 7.62,10.73 7.62,11.43 L7.62,15.24 C7.62,15.46 7.78,15.66 7.99,15.72 L8.01,15.72 L8.01,22.01 C8.01,23.17 8.95,24.11 10.11,24.11 L20.18,24.11 C19.86,23.83 19.59,23.49 19.4,23.11 L10.11,23.11 C9.5,23.11 9.01,22.62 9.01,22.01 L9.01,15.99 L15.58,17.79 C15.88,17.87 16.19,17.91 16.5,17.91 C16.81,17.91 17.12,17.87 17.42,17.79 L23.99,15.99 L23.99,18.34 C24.37,18.51 24.71,18.75 24.99,19.05 L24.99,15.72 L25.01,15.72 C25.22,15.66 25.38,15.46 25.38,15.24 L25.38,11.43 C25.38,10.73 24.81,10.17 24.11,10.17 L24.11,10.17 Z" id="Page-1"></path>
                </g>
            </g>
        </g>
    </g>
</svg>