<?xml version="1.0" encoding="UTF-8"?>
<svg width="33px" height="33px" viewBox="0 0 33 33" version="1.1" xmlns="http://www.w3.org/2000/svg" xmlns:xlink="http://www.w3.org/1999/xlink">
    <!-- Generator: Sketch 41 (35326) - http://www.bohemiancoding.com/sketch -->
    <title>Twitter Icon</title>
    <desc>Created with Sketch.</desc>
    <defs></defs>
    <g id="Symbols" stroke="none" stroke-width="1" fill="none" fill-rule="evenodd">
        <g id="Left-Nav-Default" transform="translate(-109.000000, -961.000000)" fill="#13376F">
            <path d="M133.059,971.239 C132.424,971.616 131.721,971.889 130.974,972.035 C130.375,971.398 129.522,970.999 128.579,970.999 C126.765,970.999 125.295,972.468 125.295,974.282 C125.295,974.539 125.325,974.789 125.38,975.03 C122.653,974.893 120.233,973.586 118.615,971.6 C118.332,972.085 118.17,972.649 118.17,973.25 C118.17,974.389 118.749,975.394 119.63,975.982 C119.092,975.966 118.586,975.818 118.143,975.572 L118.143,975.613 C118.143,977.203 119.276,978.53 120.776,978.832 C120.501,978.907 120.211,978.947 119.912,978.947 C119.7,978.947 119.495,978.926 119.294,978.888 C119.711,980.192 120.924,981.141 122.36,981.168 C121.237,982.048 119.823,982.572 118.284,982.572 C118.019,982.572 117.758,982.557 117.5,982.527 C118.954,983.458 120.678,984.002 122.533,984.002 C128.571,984.002 131.872,979 131.872,974.662 C131.872,974.52 131.87,974.378 131.863,974.238 C132.504,973.775 133.061,973.197 133.5,972.538 C132.913,972.8 132.28,972.976 131.616,973.055 C132.293,972.649 132.813,972.006 133.059,971.239 M125.5,993 C116.954,993 110,986.047 110,977.5 C110,968.953 116.954,962 125.5,962 C134.047,962 141,968.953 141,977.5 C141,986.047 134.047,993 125.5,993 M125.5,961 C116.402,961 109,968.402 109,977.5 C109,986.598 116.402,994 125.5,994 C134.598,994 142,986.598 142,977.5 C142,968.402 134.598,961 125.5,961" id="Twitter-Icon"></path>
        </g>
    </g>
</svg>